…
## Querying data

We’ll start by requesting a summary for all stocks that were traded on
major exchanges on the 11th June 2024. This shows us the opening,
closing, maximum and minimum prices over the day, and the volume that
was traded.

``` r
grouped_daily("2024-06-11")
#> # A tibble: 10,519 × 9
#>    ticker  volume volume_weighted  open   close   high     low
#>    <chr>    <dbl>           <dbl> <dbl>   <dbl>  <dbl>   <dbl>
#>  1 ISCG     21157          44.8    44.8  44.9    45.0   44.6  
#>  2 CVLG     29174          48.1    48.3  48.3    48.3   47.8  
#>  3 OZK    1288577          37.9    37.9  38.1    38.2   37.5  
#>  4 TGLS    706413          44.6    45.6  44.7    45.6   44.3  
#>  5 RDVY    760418          54.0    54.3  54.1    54.3   53.8  
#>  6 YYAI     84449           0.768   0.8   0.751   0.81   0.740
#>  7 ALX       8024         209.    210.  209.    210.   209.   
#>  8 IVOO     44055          98.5    98.7  98.8    98.8   97.9  
#>  9 ALCO     14640          25.8    26.2  25.8    26.2   25.7  
#> 10 QFIN   1103423          20.2    20.4  20.1    20.5   20.1  
#> # ℹ 10,509 more rows
#> # ℹ 2 more variables: time <dttm>, transactions <int>
```
…
